250 1000 5
5
100 100
900 100
900 900
100 900
200 200
5
120 190
923 112
940 800
300 700
232 222
5
300 400
400 111
700 800
100 100
133 456
5
1000 123
999 150
222 761
100 900
456 456
5
800 555
666 444
412 651
642 854
789 123
5
568 213
502 132
241 325
456 987
444 666
5
1000 189
922 177
964 972
123 932
654 567
5
117 951
989 456
912 405
117 798
456 789
5
456 123
777 328
439 708
899 999
789 455
5
111 111
222 222
333 333
444 444
456 808
10
100 100
900 100
900 900
100 900
200 200
120 190
923 112
940 800
300 700
232 222
10
120 190
923 112
940 800
300 700
232 222
300 400
400 111
700 800
100 100
133 456
10
300 400
400 111
700 800
100 100
133 456
1000 123
999 150
222 761
100 900
456 456
10
1000 123
999 150
222 761
100 900
456 456
800 555
666 444
412 651
642 854
789 123
10
800 555
666 444
412 651
642 854
789 123
568 213
502 132
241 325
456 987
444 666
10
568 213
502 132
241 325
456 987
444 666
1000 189
922 177
964 972
123 932
654 567
10
1000 189
922 177
964 972
123 932
654 567
117 951
989 456
912 405
117 798
456 789
10
117 951
989 456
912 405
117 798
456 789
456 123
777 328
439 708
899 999
789 455
10
456 123
777 328
439 708
899 999
789 455
111 111
222 222
333 333
444 444
456 808
10
111 111
222 222
333 333
444 444
456 808
100 100
900 100
900 900
100 900
200 200
11
100 100
900 100
900 900
100 900
200 200
120 190
923 112
940 800
300 700
232 222
300 400
11
120 190
923 112
940 800
300 700
232 222
300 400
400 111
700 800
100 100
133 456
1000 123
11
300 400
400 111
700 800
100 100
133 456
1000 123
999 150
222 761
100 900
456 456
800 555
11
1000 123
999 150
222 761
100 900
456 456
800 555
666 444
412 651
642 854
789 123
568 213
11
800 555
666 444
412 651
642 854
789 123
568 213
502 132
241 325
456 987
444 666
1000 189
11
568 213
502 132
241 325
456 987
444 666
1000 189
922 177
964 972
123 932
654 567
117 951
11
1000 189
922 177
964 972
123 932
654 567
117 951
989 456
912 405
117 798
456 789
456 123
11
117 951
989 456
912 405
117 798
456 789
456 123
777 328
439 708
899 999
789 455
111 111
11
456 123
777 328
439 708
899 999
789 455
111 111
222 222
333 333
444 444
456 808
100 100
11
111 111
222 222
333 333
444 444
456 808
100 100
900 100
900 900
100 900
200 200
120 190
12
100 100
900 100
900 900
100 900
200 200
120 190
923 112
940 800
300 700
232 222
300 400
137 559
12
120 190
923 112
940 800
300 700
232 222
300 400
400 111
700 800
100 100
133 456
1000 123
313 992
12
300 400
400 111
700 800
100 100
133 456
1000 123
999 150
222 761
100 900
456 456
800 555
292 130
12
1000 123
999 150
222 761
100 900
456 456
800 555
666 444
412 651
642 854
789 123
568 213
865 312
12
800 555
666 444
412 651
642 854
789 123
568 213
502 132
241 325
456 987
444 666
1000 189
100 918
12
568 213
502 132
241 325
456 987
444 666
1000 189
922 177
964 972
123 932
654 567
117 951
159 711
12
1000 189
922 177
964 972
123 932
654 567
117 951
989 456
912 405
117 798
456 789
456 123
321 654
12
117 951
989 456
912 405
117 798
456 789
456 123
777 328
439 708
899 999
789 455
111 111
133 769
12
456 123
777 328
439 708
899 999
789 455
111 111
222 222
333 333
444 444
456 808
100 100
1000 1000
12
111 111
222 222
333 333
444 444
456 808
100 100
900 100
900 900
100 900
200 200
120 190
321 123
0 0 0